[
{"name":"itens", "label":"Itens", "href":"?/itens"},
{"name":"tables", "label":"Mesas", "href":"?/tables"},
{"name":"cookery", "label":"Cozinha", "href":"?/coockery"},
{"name":"financial", "label":"Financeiro", "href":"?/financial"},
{"name":"balance", "label":"Movimento", "href":"?/balance"},
{"name":"sales", "label":"Vendas", "href":"?/sales"},
{"name":"customer", "label":"Clientes", "href":"?/customer"},
{"name":"provider", "label":"Fornecedores", "href":"?/provider"},
{"name":"user", "label":"Usuários", "href":"?/user"},
{"name":"stock", "label":"Estoque", "href":"?/stock"},
{"name":"config", "label":"Configurações", "href":"?/settings"}
]